{
  "name": "Metodología de la investigación",
  "image": "portada.jpg",
  "temas": [
    {
      "tema": "Introducción",
      "subtemas": [
        {
          "tema": "Bloque II",
          "url": "index.html"
        },
        {
          "tema": "Integración",
          "url": "integracion.html"
        },
        {
          "tema": "Evaluación diagnóstica",
          "url": "mi_entorno_evaluacion_diagnostica.html"
        },
        {
          "tema": "Mis intereses",
          "url": "mis_intereses.html"
        }
      ]
    },
    {
      "tema": "Fase I. Protocolo de investigación",
      "subtemas": [
        {
          "tema": "Fase I. Protocolo de investigación",
          "url": "tema1.0.0.html"
        },
        {
          "tema": "Selección y delimitación del tema",
          "url": "tema1.1.0.html"
        },
        {
          "tema": "Actividad 1",
          "url": "tema1.1.0A1.html"
        },
        {
          "tema": "Actividad 2",
          "url": "tema1.1.0A2.html"
        },
        {
          "tema": "Planteamiento del problema",
          "url": "tema1.2.0.html"
        },
        {
          "tema": "Actividad 3",
          "url": "tema1.2.0A3.html"
        },
        {
          "tema": "Hipótesis",
          "url": "tema1.3.0.html"
        },
        {
          "tema": "Actividad 4",
          "url": "tema1.3.0A4.html"
        },
        {
          "tema": "Fomento a la lectura",
          "url": "tema1.3.0A4_fomento_lectura.html"
        },
        {
          "tema": "Actividad 5",
          "url": "tema1.3.0A5.html"
        },
        {
          "tema": "Objetivos de la investigación",
          "url": "tema1.4.0.html"
        },
        {
          "tema": "Justificación de la investigación",
          "url": "tema1.5.0.html"
        },
        {
          "tema": "Actividad 6",
          "url": "tema1.5.0A6.html"
        },
        {
          "tema": "Evaluación formativa",
          "url": "tema1.5.0A6_evaluacion_formativa.html"
        }

      ]
    },
    {
      "tema": "Fase II. Métodos y técnicas de la investigación",
      "subtemas": [
        {
          "tema": "Métodos, técnicas e instrumentos de investigación",
          "url": "tema2.0.0.html"
        },
        {
          "tema": "Actividad 7",
          "url": "tema2.1.0A7.html"
        },
        {
          "tema": "Actividad 8",
          "url": "tema2.1.0A8.html"
        },
        {
          "tema": "Actividad 9",
          "url": "tema2.1.0A9.html"
        },
        {
          "tema": "Actividad 10",
          "url": "tema2.2.0A10.html"
        },
        {
          "tema": "Actividad 11",
          "url": "tema2.3.0A11.html"
        },
        {
          "tema": "Estilo de referencia bibliográfica APA",
          "url": "tema2.4.0.html"
        },
        {
          "tema": "Actividad 12",
          "url": "tema2.4.0A12.html"
        },
        {
          "tema": "Actividad 13",
          "url": "tema2.4.0A13.html"
        },
        {
          "tema": "Integración",
          "url": "tema2.4.0A13_integracion.html"
        },
        {
          "tema": "Evaluación formativa",
          "url": "tema2.4.0A13_evaluacion_formativa.html"
        }
      ]
    },
    {
      "tema": "Fase III: Construcción del marco teórico",
      "subtemas": [
        {
          "tema": "Funciones del marco teórico",
          "url": "tema3.0.0.html"
        },
        {
          "tema": "Actividad 14",
          "url": "tema3.1.0A14.html"
        },
        {
          "tema": "Etapas para la elaboración del marco teórico",
          "url": "tema3.1.0.html"
        },
        {
          "tema": "Actividad 15",
          "url": "tema3.1.0A15.html"
        },
        {
          "tema": "Revisión y adopción de una teoría",
          "url": "tema3.3.0.html"
        },
        {
          "tema": "Actividad 16",
          "url": "tema3.3.0A16.html"
        },
        {
          "tema": "Integración",
          "url": "tema3.3.0A16_integracion.html"
        },
        {
          "tema": "Evaluación formativa",
          "url": "tema3.3.0A16_evaluacion_formativa.html"
        },
        {
          "tema": "Evaluación sumativa",
          "url": "tema3.3.0A16_evaluacion_sumativa.html"
        },
        {
          "tema": "Prueba tipo PLANEA",
          "url": "tema3.3.0A16_prueba_planea.html"
        }
      ]
    }
  ]
}
